# Fdb version 3
["pdflatex"] 1545075727 "c:/Users/mkohi/Documents/Projects/Connect/con_main/Connect_Guide.tex" "Connect_Guide.pdf" "Connect_Guide" 1545075738
  "C:/Users/mkohi/AppData/Local/MiKTeX/2.9/miktex/data/le/pdftex/pdflatex.fmt" 1544822230 4162303 1f52a9e867848ce91067465e46ca61a4 ""
  "C:/Users/mkohi/AppData/Local/MiKTeX/2.9/pdftex/config/pdftex.map" 1545070141 81402 ad4cb5786000f7815298b55aabd8ce72 ""
  "C:/Users/mkohi/AppData/Local/Programs/MiKTeX 2.9/fonts/enc/dvips/base/8r.enc" 1458470287 4993 80dc9bab7f31fb78a000ccfed0e27cab ""
  "C:/Users/mkohi/AppData/Local/Programs/MiKTeX 2.9/fonts/tfm/adobe/courier/pcrro8r.tfm" 1136765053 1544 4fb84cf2931ec523c2c6a08d939088ba ""
  "C:/Users/mkohi/AppData/Local/Programs/MiKTeX 2.9/fonts/tfm/adobe/courier/pcrro8t.tfm" 1136765053 1596 04a657f277f0401ba37d66e716627ac4 ""
  "C:/Users/mkohi/AppData/Local/Programs/MiKTeX 2.9/fonts/tfm/public/cm/cmbx8.tfm" 1136765053 1332 1fde11373e221473104d6cc5993f046e ""
  "C:/Users/mkohi/AppData/Local/Programs/MiKTeX 2.9/fonts/tfm/public/cm/cmr17.tfm" 1136765053 1292 296a67155bdbfc32aa9c636f21e91433 ""
  "C:/Users/mkohi/AppData/Local/Programs/MiKTeX 2.9/fonts/tfm/public/cm/cmr8.tfm" 1136765053 1292 21c1c5bfeaebccffdb478fd231a0997d ""
  "C:/Users/mkohi/AppData/Local/Programs/MiKTeX 2.9/fonts/tfm/public/cm/cmsy8.tfm" 1136765053 1120 8b7d695260f3cff42e636090a8002094 ""
  "C:/Users/mkohi/AppData/Local/Programs/MiKTeX 2.9/fonts/tfm/public/cm/cmtt10.tfm" 1136765053 768 1321e9409b4137d6fb428ac9dc956269 ""
  "C:/Users/mkohi/AppData/Local/Programs/MiKTeX 2.9/fonts/tfm/public/cm/cmtt8.tfm" 1136765053 768 d7b9a2629a0c353102ad947dc9221d49 ""
  "C:/Users/mkohi/AppData/Local/Programs/MiKTeX 2.9/fonts/type1/public/amsfonts/cm/cmbx8.pfb" 1247593066 32166 b0c356b15f19587482a9217ce1d8fa67 ""
  "C:/Users/mkohi/AppData/Local/Programs/MiKTeX 2.9/fonts/type1/public/amsfonts/cm/cmr10.pfb" 1247593067 35752 024fb6c41858982481f6968b5fc26508 ""
  "C:/Users/mkohi/AppData/Local/Programs/MiKTeX 2.9/fonts/type1/public/amsfonts/cm/cmr17.pfb" 1247593066 32362 bc3f3eec7ab7d65fe700963d4017d32c ""
  "C:/Users/mkohi/AppData/Local/Programs/MiKTeX 2.9/fonts/type1/public/amsfonts/cm/cmr5.pfb" 1247593067 31809 8670ca339bf94e56da1fc21c80635e2a ""
  "C:/Users/mkohi/AppData/Local/Programs/MiKTeX 2.9/fonts/type1/public/amsfonts/cm/cmsy10.pfb" 1247593067 32569 5e5ddc8df908dea60932f3c484a54c0d ""
  "C:/Users/mkohi/AppData/Local/Programs/MiKTeX 2.9/fonts/type1/public/amsfonts/cm/cmsy8.pfb" 1247593067 32626 5abc8bb2f28aa647d4c70f8ea38cc0d3 ""
  "C:/Users/mkohi/AppData/Local/Programs/MiKTeX 2.9/fonts/type1/public/amsfonts/cm/cmtt8.pfb" 1247593066 24287 6b803fa9eb1ddff9112e00519b09dd9e ""
  "C:/Users/mkohi/AppData/Local/Programs/MiKTeX 2.9/fonts/type1/urw/courier/ucrro8a.pfb" 1136846148 44404 ea3d9c0311883914133975dd62a9185c ""
  "C:/Users/mkohi/AppData/Local/Programs/MiKTeX 2.9/fonts/vf/adobe/courier/pcrro8t.vf" 1136765053 2280 d7cd083c724c9449e1d12731253966f7 ""
  "C:/Users/mkohi/AppData/Local/Programs/MiKTeX 2.9/tex/context/base/supp-pdf.mkii" 1306914861 71592 fe353e1fbd982ffc647f3e98ff74da96 ""
  "C:/Users/mkohi/AppData/Local/Programs/MiKTeX 2.9/tex/generic/ifxetex/ifxetex.sty" 1284257189 1458 43ab4710dc82f3edeabecd0d099626b2 ""
  "C:/Users/mkohi/AppData/Local/Programs/MiKTeX 2.9/tex/generic/oberdiek/ifpdf.sty" 1536624135 1300 96620a7d94bc0ceb261d968770ce8315 ""
  "C:/Users/mkohi/AppData/Local/Programs/MiKTeX 2.9/tex/generic/oberdiek/ifvtex.sty" 1536624135 6797 90b7f83b0ad46826bc16058b1e3d48df ""
  "C:/Users/mkohi/AppData/Local/Programs/MiKTeX 2.9/tex/latex/base/article.cls" 1527453198 19823 fcbc01552b07b608574cbf8e1977e0c0 ""
  "C:/Users/mkohi/AppData/Local/Programs/MiKTeX 2.9/tex/latex/base/omscmr.fd" 1527453208 2472 aa08940f0a4dc6c24ae9f943b04ae0b9 ""
  "C:/Users/mkohi/AppData/Local/Programs/MiKTeX 2.9/tex/latex/base/size10.clo" 1527453198 8294 b0f177401f895563eb19304d2389582d ""
  "C:/Users/mkohi/AppData/Local/Programs/MiKTeX 2.9/tex/latex/geometry/geometry.cfg" 1526148249 1099 b6078cb9f5824f08d323a859b6eb16e5 ""
  "C:/Users/mkohi/AppData/Local/Programs/MiKTeX 2.9/tex/latex/geometry/geometry.sty" 1526148249 42805 0653033a985e06c69a2a9cea9a95e31a ""
  "C:/Users/mkohi/AppData/Local/Programs/MiKTeX 2.9/tex/latex/graphics-cfg/color.cfg" 1465890692 1213 620bba36b25224fa9b7e1ccb4ecb76fd ""
  "C:/Users/mkohi/AppData/Local/Programs/MiKTeX 2.9/tex/latex/graphics-def/pdftex.def" 1515448300 17334 520b9b85ad8a2a48eda3f643e27a5179 ""
  "C:/Users/mkohi/AppData/Local/Programs/MiKTeX 2.9/tex/latex/graphics/color.sty" 1523172385 7226 112f909feb676788e7ea1c5b0b76320f ""
  "C:/Users/mkohi/AppData/Local/Programs/MiKTeX 2.9/tex/latex/graphics/dvipsnam.def" 1523172385 5035 c1421f5ee140ec8aa7a12ec5462e7bab ""
  "C:/Users/mkohi/AppData/Local/Programs/MiKTeX 2.9/tex/latex/graphics/keyval.sty" 1523172385 2678 6404d0c7d28505fb38ce0d86c2e28ae7 ""
  "C:/Users/mkohi/AppData/Local/Programs/MiKTeX 2.9/tex/latex/listings/listings.cfg" 1536063542 1877 dcfaf5610ea22a61c7baac6f2ca3cb43 ""
  "C:/Users/mkohi/AppData/Local/Programs/MiKTeX 2.9/tex/latex/listings/listings.sty" 1536063542 82639 a25e563baccecba00b03b4a462eb4141 ""
  "C:/Users/mkohi/AppData/Local/Programs/MiKTeX 2.9/tex/latex/listings/lstlang1.sty" 1536063544 206855 e607ed8f3cb83d0d64c452db0f937212 ""
  "C:/Users/mkohi/AppData/Local/Programs/MiKTeX 2.9/tex/latex/listings/lstmisc.sty" 1536063542 79105 1c90ba86bdf6da80a6b661f51d7f0175 ""
  "C:/Users/mkohi/AppData/Local/Programs/MiKTeX 2.9/tex/latex/psnfss/omspcr.fd" 1137143030 576 907c194ce74186f4e40247f2ba1986cf ""
  "C:/Users/mkohi/AppData/Local/Programs/MiKTeX 2.9/tex/latex/psnfss/t1pcr.fd" 1137143030 798 d5895e9edc628f2be019beb2c0ec66df ""
  "Connect_Guide.aux" 1545075728 163 a9a95affe8298780f311f833489c6ad3 ""
  "Connect_Guide.tex" 1545075727 3809 492bed25953c60cfd6aa0094b185a4b5 ""
  "Scripts/LmdToRpsAutomationHelper.java" 1545073019 6564 9cfb294cfdff256e12853e0458dd78fd ""
  "c:/Users/mkohi/Documents/Projects/Connect/con_main/Connect_Guide.tex" 1545075727 3809 492bed25953c60cfd6aa0094b185a4b5 ""
  (generated)
  "Connect_Guide.pdf"
  "Connect_Guide.aux"
  "Connect_Guide.log"
